20140106,1.0
20140107,5.0
20140108,18.0
20140109,12.0
20140110,7.0
20140111,20.0
20140112,140.0
20140113,25.0
20140114,14.0
20140115,9.0
20140116,4.0
20140117,2.0
20140118,3.0
20140119,4.0
20140120,5.0
20140121,8.0
20140122,1.0
20140124,7.0
20140125,53.0
20140126,86.0
20140127,23.0
20140128,4.0
20140206,9.0
20140207,5.0
20140208,8.0
20140209,67.0
20140210,119.0
20140211,4.0
20140212,54.0
20140213,138.0
20140214,162.0
20140215,21.0
20140216,57.0
20140217,44.0
20140218,64.0
20140219,18.0
20140220,7.0
20140221,14.0
